2017-09-18 13:17:50.645555: W tensorflow/core/platform/cpu_feature_guard.cc:45] The TensorFlow library wasn't compiled to use SSE4.1 instructions, but these are available on your machine and could speed up CPU computations.
2017-09-18 13:17:50.645699: W tensorflow/core/platform/cpu_feature_guard.cc:45] The TensorFlow library wasn't compiled to use SSE4.2 instructions, but these are available on your machine and could speed up CPU computations.
2017-09-18 13:17:50.645745: W tensorflow/core/platform/cpu_feature_guard.cc:45] The TensorFlow library wasn't compiled to use AVX instructions, but these are available on your machine and could speed up CPU computations.
2017-09-18 13:17:50.645784: W tensorflow/core/platform/cpu_feature_guard.cc:45] The TensorFlow library wasn't compiled to use AVX2 instructions, but these are available on your machine and could speed up CPU computations.
2017-09-18 13:17:50.645820: W tensorflow/core/platform/cpu_feature_guard.cc:45] The TensorFlow library wasn't compiled to use FMA instructions, but these are available on your machine and could speed up CPU computations.
2017-09-18 13:17:51.256240: I tensorflow/core/common_runtime/gpu/gpu_device.cc:940] Found device 0 with properties: 
name: Graphics Device
major: 6 minor: 1 memoryClockRate (GHz) 1.582
pciBusID 0000:0a:00.0
Total memory: 10.91GiB
Free memory: 10.76GiB
2017-09-18 13:17:51.257485: I tensorflow/core/common_runtime/gpu/gpu_device.cc:961] DMA: 0 
2017-09-18 13:17:51.257515: I tensorflow/core/common_runtime/gpu/gpu_device.cc:971] 0:   Y 
2017-09-18 13:17:51.257541: I tensorflow/core/common_runtime/gpu/gpu_device.cc:1030] Creating TensorFlow device (/gpu:0) -> (device: 0, name: Graphics Device, pci bus id: 0000:0a:00.0)
WARNING:tensorflow:Standard services need a 'logdir' passed to the SessionManager
Epoch: 1 Learning rate: 0.100
0.008 perplexity: 3335.166 speed: 14060 wps
0.107 perplexity: 1149.666 speed: 35796 wps
0.206 perplexity: 1015.615 speed: 38339 wps
0.306 perplexity: 944.625 speed: 34738 wps
0.405 perplexity: 899.912 speed: 36129 wps
0.505 perplexity: 856.336 speed: 37044 wps
0.604 perplexity: 807.029 speed: 37702 wps
0.704 perplexity: 766.349 speed: 38184 wps
0.803 perplexity: 730.562 speed: 38513 wps
0.903 perplexity: 697.302 speed: 38752 wps
Epoch: 1 Train Perplexity: 668.976
Epoch: 1 Valid Perplexity: 484.480
Epoch: 2 Learning rate: 0.100
0.008 perplexity: 527.841 speed: 41415 wps
0.107 perplexity: 427.789 speed: 41116 wps
0.206 perplexity: 434.554 speed: 40908 wps
0.306 perplexity: 423.926 speed: 40898 wps
0.405 perplexity: 418.469 speed: 40850 wps
0.505 perplexity: 412.836 speed: 40878 wps
0.604 perplexity: 400.783 speed: 40910 wps
0.704 perplexity: 392.171 speed: 40888 wps
0.803 perplexity: 385.102 speed: 40865 wps
0.903 perplexity: 376.542 speed: 40863 wps
Epoch: 2 Train Perplexity: 369.495
Epoch: 2 Valid Perplexity: 331.246
Epoch: 3 Learning rate: 0.100
0.008 perplexity: 361.586 speed: 40779 wps
0.107 perplexity: 295.797 speed: 40615 wps
0.206 perplexity: 308.019 speed: 40752 wps
0.306 perplexity: 303.741 speed: 40907 wps
0.405 perplexity: 303.653 speed: 40958 wps
0.505 perplexity: 302.580 speed: 41011 wps
0.604 perplexity: 296.447 speed: 41046 wps
0.704 perplexity: 292.575 speed: 41049 wps
0.803 perplexity: 289.608 speed: 41105 wps
0.903 perplexity: 284.866 speed: 41134 wps
Epoch: 3 Train Perplexity: 281.447
Epoch: 3 Valid Perplexity: 280.068
Epoch: 4 Learning rate: 0.100
0.008 perplexity: 292.566 speed: 39610 wps
0.107 perplexity: 240.256 speed: 40488 wps
0.206 perplexity: 253.124 speed: 40823 wps
0.306 perplexity: 250.124 speed: 40984 wps
0.405 perplexity: 250.485 speed: 41017 wps
0.505 perplexity: 250.250 speed: 40998 wps
0.604 perplexity: 245.724 speed: 40748 wps
0.704 perplexity: 243.552 speed: 40801 wps
0.803 perplexity: 242.018 speed: 40847 wps
0.903 perplexity: 238.655 speed: 40863 wps
Epoch: 4 Train Perplexity: 236.523
Epoch: 4 Valid Perplexity: 251.511
Epoch: 5 Learning rate: 0.100
0.008 perplexity: 253.497 speed: 41033 wps
0.107 perplexity: 207.230 speed: 40982 wps
0.206 perplexity: 219.457 speed: 41049 wps
0.306 perplexity: 216.679 speed: 40999 wps
0.405 perplexity: 217.094 speed: 41018 wps
0.505 perplexity: 217.168 speed: 41031 wps
0.604 perplexity: 213.415 speed: 41032 wps
0.704 perplexity: 211.854 speed: 41044 wps
0.803 perplexity: 210.873 speed: 40745 wps
0.903 perplexity: 208.108 speed: 40725 wps
Epoch: 5 Train Perplexity: 206.551
Epoch: 5 Valid Perplexity: 232.737
Epoch: 6 Learning rate: 0.100
0.008 perplexity: 225.732 speed: 41261 wps
0.107 perplexity: 183.904 speed: 41063 wps
0.206 perplexity: 195.642 speed: 41002 wps
0.306 perplexity: 192.856 speed: 41085 wps
0.405 perplexity: 193.650 speed: 40915 wps
0.505 perplexity: 193.802 speed: 40898 wps
0.604 perplexity: 190.590 speed: 40907 wps
0.704 perplexity: 189.657 speed: 40924 wps
0.803 perplexity: 188.971 speed: 40924 wps
0.903 perplexity: 186.617 speed: 40940 wps
Epoch: 6 Train Perplexity: 185.328
Epoch: 6 Valid Perplexity: 222.315
Epoch: 7 Learning rate: 0.080
0.008 perplexity: 202.137 speed: 40995 wps
0.107 perplexity: 163.265 speed: 40731 wps
0.206 perplexity: 174.208 speed: 40925 wps
0.306 perplexity: 171.727 speed: 41011 wps
0.405 perplexity: 172.224 speed: 41000 wps
0.505 perplexity: 172.304 speed: 41024 wps
0.604 perplexity: 169.566 speed: 41039 wps
0.704 perplexity: 168.875 speed: 40941 wps
0.803 perplexity: 168.374 speed: 40924 wps
0.903 perplexity: 166.261 speed: 40945 wps
Epoch: 7 Train Perplexity: 165.190
Epoch: 7 Valid Perplexity: 206.868
Epoch: 8 Learning rate: 0.064
0.008 perplexity: 186.671 speed: 40830 wps
0.107 perplexity: 148.687 speed: 40749 wps
0.206 perplexity: 159.193 speed: 40183 wps
0.306 perplexity: 156.671 speed: 40307 wps
0.405 perplexity: 157.279 speed: 40398 wps
0.505 perplexity: 157.408 speed: 40488 wps
0.604 perplexity: 154.880 speed: 40534 wps
0.704 perplexity: 154.358 speed: 40570 wps
0.803 perplexity: 154.008 speed: 40588 wps
0.903 perplexity: 152.060 speed: 40440 wps
Epoch: 8 Train Perplexity: 151.132
Epoch: 8 Valid Perplexity: 198.581
Epoch: 9 Learning rate: 0.051
0.008 perplexity: 173.409 speed: 41311 wps
0.107 perplexity: 138.371 speed: 40910 wps
0.206 perplexity: 148.325 speed: 40982 wps
0.306 perplexity: 145.950 speed: 41007 wps
0.405 perplexity: 146.510 speed: 40749 wps
0.505 perplexity: 146.699 speed: 40777 wps
0.604 perplexity: 144.369 speed: 40793 wps
0.704 perplexity: 143.919 speed: 40829 wps
0.803 perplexity: 143.649 speed: 40846 wps
0.903 perplexity: 141.841 speed: 40827 wps
Epoch: 9 Train Perplexity: 141.035
Epoch: 9 Valid Perplexity: 192.782
Epoch: 10 Learning rate: 0.041
0.008 perplexity: 162.136 speed: 40990 wps
0.107 perplexity: 130.500 speed: 40614 wps
0.206 perplexity: 140.602 speed: 40669 wps
0.306 perplexity: 138.349 speed: 40611 wps
0.405 perplexity: 138.822 speed: 40622 wps
0.505 perplexity: 139.059 speed: 40603 wps
0.604 perplexity: 136.937 speed: 40594 wps
0.704 perplexity: 136.587 speed: 40605 wps
0.803 perplexity: 136.344 speed: 40641 wps
0.903 perplexity: 134.600 speed: 40668 wps
Epoch: 10 Train Perplexity: 133.871
Epoch: 10 Valid Perplexity: 187.772
Epoch: 11 Learning rate: 0.033
0.008 perplexity: 156.832 speed: 40387 wps
0.107 perplexity: 125.489 speed: 39997 wps
0.206 perplexity: 135.053 speed: 40415 wps
0.306 perplexity: 132.803 speed: 40509 wps
0.405 perplexity: 133.410 speed: 40643 wps
0.505 perplexity: 133.536 speed: 40687 wps
0.604 perplexity: 131.472 speed: 40696 wps
0.704 perplexity: 131.120 speed: 40719 wps
0.803 perplexity: 130.879 speed: 40757 wps
0.903 perplexity: 129.176 speed: 40768 wps
Epoch: 11 Train Perplexity: 128.469
Epoch: 11 Valid Perplexity: 185.208
Epoch: 12 Learning rate: 0.026
0.008 perplexity: 152.322 speed: 39365 wps
0.107 perplexity: 120.933 speed: 40536 wps
0.206 perplexity: 130.458 speed: 40215 wps
0.306 perplexity: 128.335 speed: 40268 wps
0.405 perplexity: 128.948 speed: 40392 wps
0.505 perplexity: 129.151 speed: 40493 wps
0.604 perplexity: 127.141 speed: 40368 wps
0.704 perplexity: 126.824 speed: 40422 wps
0.803 perplexity: 126.623 speed: 40433 wps
0.903 perplexity: 124.990 speed: 40464 wps
Epoch: 12 Train Perplexity: 124.358
Epoch: 12 Valid Perplexity: 183.087
Epoch: 13 Learning rate: 0.021
0.008 perplexity: 146.920 speed: 40925 wps
0.107 perplexity: 118.042 speed: 40706 wps
0.206 perplexity: 127.416 speed: 40711 wps
0.306 perplexity: 125.222 speed: 40762 wps
0.405 perplexity: 125.867 speed: 40688 wps
0.505 perplexity: 126.001 speed: 40727 wps
0.604 perplexity: 124.037 speed: 40702 wps
0.704 perplexity: 123.761 speed: 40702 wps
0.803 perplexity: 123.589 speed: 40746 wps
0.903 perplexity: 121.980 speed: 40760 wps
Epoch: 13 Train Perplexity: 121.393
Epoch: 13 Valid Perplexity: 180.339
Epoch: 14 Learning rate: 0.017
0.008 perplexity: 144.404 speed: 41106 wps
0.107 perplexity: 115.609 speed: 40720 wps
0.206 perplexity: 124.947 speed: 40638 wps
0.306 perplexity: 122.799 speed: 40673 wps
0.405 perplexity: 123.419 speed: 40685 wps
0.505 perplexity: 123.595 speed: 40565 wps
0.604 perplexity: 121.686 speed: 40575 wps
0.704 perplexity: 121.434 speed: 40596 wps
0.803 perplexity: 121.289 speed: 40607 wps
0.903 perplexity: 119.705 speed: 40622 wps
Epoch: 14 Train Perplexity: 119.116
Epoch: 14 Valid Perplexity: 178.769
Epoch: 15 Learning rate: 0.013
0.008 perplexity: 142.919 speed: 41098 wps
0.107 perplexity: 113.929 speed: 40609 wps
0.206 perplexity: 123.162 speed: 40761 wps
0.306 perplexity: 120.981 speed: 40751 wps
0.405 perplexity: 121.657 speed: 40750 wps
0.505 perplexity: 121.809 speed: 40740 wps
0.604 perplexity: 119.924 speed: 40753 wps
0.704 perplexity: 119.700 speed: 40757 wps
0.803 perplexity: 119.538 speed: 40772 wps
0.903 perplexity: 117.993 speed: 40749 wps
Epoch: 15 Train Perplexity: 117.426
Epoch: 15 Valid Perplexity: 176.734
Epoch: 16 Learning rate: 0.011
0.008 perplexity: 141.148 speed: 40687 wps
0.107 perplexity: 112.408 speed: 40807 wps
0.206 perplexity: 121.645 speed: 40556 wps
0.306 perplexity: 119.523 speed: 40723 wps
0.405 perplexity: 120.254 speed: 40792 wps
0.505 perplexity: 120.421 speed: 40822 wps
0.604 perplexity: 118.550 speed: 40797 wps
0.704 perplexity: 118.326 speed: 40745 wps
0.803 perplexity: 118.154 speed: 40700 wps
0.903 perplexity: 116.598 speed: 40695 wps
Epoch: 16 Train Perplexity: 116.055
Epoch: 16 Valid Perplexity: 176.102
Epoch: 17 Learning rate: 0.009
0.008 perplexity: 139.642 speed: 40773 wps
0.107 perplexity: 111.423 speed: 40789 wps
0.206 perplexity: 120.623 speed: 40770 wps
0.306 perplexity: 118.448 speed: 40646 wps
0.405 perplexity: 119.214 speed: 40739 wps
0.505 perplexity: 119.368 speed: 40762 wps
0.604 perplexity: 117.461 speed: 40737 wps
0.704 perplexity: 117.204 speed: 40742 wps
0.803 perplexity: 117.064 speed: 40756 wps
0.903 perplexity: 115.532 speed: 40734 wps
Epoch: 17 Train Perplexity: 115.013
Epoch: 17 Valid Perplexity: 174.619
Epoch: 18 Learning rate: 0.007
0.008 perplexity: 138.363 speed: 40763 wps
0.107 perplexity: 110.748 speed: 40769 wps
0.206 perplexity: 119.855 speed: 40668 wps
0.306 perplexity: 117.679 speed: 40705 wps
0.405 perplexity: 118.475 speed: 40669 wps
0.505 perplexity: 118.625 speed: 40640 wps
0.604 perplexity: 116.739 speed: 40670 wps
0.704 perplexity: 116.483 speed: 40672 wps
0.803 perplexity: 116.318 speed: 40677 wps
0.903 perplexity: 114.787 speed: 40687 wps
Epoch: 18 Train Perplexity: 114.282
Epoch: 18 Valid Perplexity: 173.683
Epoch: 19 Learning rate: 0.005
0.008 perplexity: 137.919 speed: 40584 wps
0.107 perplexity: 110.010 speed: 41051 wps
0.206 perplexity: 119.117 speed: 40697 wps
0.306 perplexity: 116.940 speed: 40691 wps
0.405 perplexity: 117.796 speed: 40703 wps
0.505 perplexity: 118.035 speed: 40733 wps
0.604 perplexity: 116.141 speed: 40745 wps
0.704 perplexity: 115.883 speed: 40766 wps
0.803 perplexity: 115.736 speed: 40770 wps
0.903 perplexity: 114.215 speed: 40765 wps
Epoch: 19 Train Perplexity: 113.692
Epoch: 19 Valid Perplexity: 172.630
Epoch: 20 Learning rate: 0.004
0.008 perplexity: 137.053 speed: 41283 wps
0.107 perplexity: 109.668 speed: 40835 wps
0.206 perplexity: 118.716 speed: 40808 wps
0.306 perplexity: 116.492 speed: 40816 wps
0.405 perplexity: 117.308 speed: 40802 wps
0.505 perplexity: 117.571 speed: 40694 wps
0.604 perplexity: 115.683 speed: 40635 wps
0.704 perplexity: 115.452 speed: 40665 wps
0.803 perplexity: 115.308 speed: 40668 wps
0.903 perplexity: 113.785 speed: 40699 wps
Epoch: 20 Train Perplexity: 113.266
Epoch: 20 Valid Perplexity: 172.130
Epoch: 21 Learning rate: 0.004
0.008 perplexity: 136.827 speed: 41190 wps
0.107 perplexity: 109.250 speed: 40605 wps
0.206 perplexity: 118.378 speed: 40692 wps
0.306 perplexity: 116.198 speed: 40769 wps
0.405 perplexity: 117.051 speed: 40798 wps
0.505 perplexity: 117.313 speed: 40832 wps
0.604 perplexity: 115.442 speed: 40820 wps
0.704 perplexity: 115.197 speed: 40854 wps
0.803 perplexity: 115.040 speed: 40856 wps
0.903 perplexity: 113.500 speed: 40849 wps
Epoch: 21 Train Perplexity: 112.976
Epoch: 21 Valid Perplexity: 171.678
Epoch: 22 Learning rate: 0.003
0.008 perplexity: 135.678 speed: 40685 wps
0.107 perplexity: 108.930 speed: 40894 wps
0.206 perplexity: 118.037 speed: 40906 wps
0.306 perplexity: 115.827 speed: 40968 wps
0.405 perplexity: 116.672 speed: 40962 wps
0.505 perplexity: 116.989 speed: 40579 wps
0.604 perplexity: 115.132 speed: 40641 wps
0.704 perplexity: 114.914 speed: 40708 wps
0.803 perplexity: 114.764 speed: 40717 wps
0.903 perplexity: 113.213 speed: 40748 wps
Epoch: 22 Train Perplexity: 112.687
Epoch: 22 Valid Perplexity: 171.074
Epoch: 23 Learning rate: 0.002
0.008 perplexity: 135.500 speed: 41157 wps
0.107 perplexity: 108.640 speed: 40900 wps
0.206 perplexity: 117.802 speed: 40851 wps
0.306 perplexity: 115.646 speed: 40809 wps
0.405 perplexity: 116.473 speed: 40858 wps
0.505 perplexity: 116.807 speed: 40635 wps
0.604 perplexity: 114.929 speed: 40689 wps
0.704 perplexity: 114.724 speed: 40682 wps
0.803 perplexity: 114.576 speed: 40719 wps
0.903 perplexity: 113.037 speed: 40746 wps
Epoch: 23 Train Perplexity: 112.513
Epoch: 23 Valid Perplexity: 170.833
Epoch: 24 Learning rate: 0.002
0.008 perplexity: 136.651 speed: 41485 wps
0.107 perplexity: 108.716 speed: 41144 wps
0.206 perplexity: 117.884 speed: 41113 wps
0.306 perplexity: 115.629 speed: 41008 wps
0.405 perplexity: 116.411 speed: 40982 wps
0.505 perplexity: 116.687 speed: 40979 wps
0.604 perplexity: 114.788 speed: 40983 wps
0.704 perplexity: 114.576 speed: 40969 wps
0.803 perplexity: 114.412 speed: 40901 wps
0.903 perplexity: 112.862 speed: 40925 wps
Epoch: 24 Train Perplexity: 112.337
Epoch: 24 Valid Perplexity: 170.535
Epoch: 25 Learning rate: 0.001
0.008 perplexity: 136.066 speed: 39827 wps
0.107 perplexity: 108.527 speed: 40756 wps
0.206 perplexity: 117.689 speed: 40794 wps
0.306 perplexity: 115.469 speed: 40892 wps
0.405 perplexity: 116.263 speed: 40880 wps
0.505 perplexity: 116.557 speed: 40883 wps
0.604 perplexity: 114.678 speed: 40885 wps
0.704 perplexity: 114.434 speed: 40889 wps
0.803 perplexity: 114.259 speed: 40890 wps
0.903 perplexity: 112.722 speed: 40890 wps
Epoch: 25 Train Perplexity: 112.208
Epoch: 25 Valid Perplexity: 170.248
Epoch: 26 Learning rate: 0.001
0.008 perplexity: 134.899 speed: 41005 wps
0.107 perplexity: 108.326 speed: 40789 wps
0.206 perplexity: 117.618 speed: 40815 wps
0.306 perplexity: 115.345 speed: 40895 wps
0.405 perplexity: 116.147 speed: 40790 wps
0.505 perplexity: 116.453 speed: 40808 wps
0.604 perplexity: 114.565 speed: 40862 wps
0.704 perplexity: 114.349 speed: 40880 wps
0.803 perplexity: 114.183 speed: 40836 wps
0.903 perplexity: 112.634 speed: 40837 wps
Epoch: 26 Train Perplexity: 112.103
Epoch: 26 Valid Perplexity: 169.982
Epoch: 27 Learning rate: 0.001
0.008 perplexity: 134.912 speed: 40788 wps
0.107 perplexity: 108.190 speed: 40942 wps
0.206 perplexity: 117.525 speed: 40936 wps
0.306 perplexity: 115.275 speed: 40926 wps
0.405 perplexity: 116.119 speed: 40965 wps
0.505 perplexity: 116.418 speed: 40967 wps
0.604 perplexity: 114.518 speed: 40938 wps
0.704 perplexity: 114.290 speed: 40930 wps
0.803 perplexity: 114.151 speed: 40888 wps
0.903 perplexity: 112.589 speed: 40859 wps
Epoch: 27 Train Perplexity: 112.055
Epoch: 27 Valid Perplexity: 169.880
Epoch: 28 Learning rate: 0.001
0.008 perplexity: 134.705 speed: 40689 wps
0.107 perplexity: 108.255 speed: 40676 wps
0.206 perplexity: 117.518 speed: 40841 wps
0.306 perplexity: 115.319 speed: 40832 wps
0.405 perplexity: 116.141 speed: 40884 wps
0.505 perplexity: 116.471 speed: 40781 wps
0.604 perplexity: 114.549 speed: 40840 wps
0.704 perplexity: 114.305 speed: 40832 wps
0.803 perplexity: 114.176 speed: 40833 wps
0.903 perplexity: 112.637 speed: 40832 wps
Epoch: 28 Train Perplexity: 112.093
Epoch: 28 Valid Perplexity: 169.613
Epoch: 29 Learning rate: 0.001
0.008 perplexity: 135.037 speed: 41028 wps
0.107 perplexity: 108.089 speed: 41140 wps
0.206 perplexity: 117.402 speed: 41004 wps
0.306 perplexity: 115.227 speed: 40919 wps
0.405 perplexity: 116.032 speed: 40913 wps
0.505 perplexity: 116.377 speed: 40916 wps
0.604 perplexity: 114.456 speed: 40938 wps
0.704 perplexity: 114.235 speed: 40943 wps
0.803 perplexity: 114.100 speed: 40881 wps
0.903 perplexity: 112.561 speed: 40878 wps
Epoch: 29 Train Perplexity: 111.995
Epoch: 29 Valid Perplexity: 169.494
Epoch: 30 Learning rate: 0.000
0.008 perplexity: 134.608 speed: 41024 wps
0.107 perplexity: 107.949 speed: 41008 wps
0.206 perplexity: 117.354 speed: 40979 wps
0.306 perplexity: 115.143 speed: 40989 wps
0.405 perplexity: 115.962 speed: 40985 wps
0.505 perplexity: 116.323 speed: 40983 wps
0.604 perplexity: 114.429 speed: 40997 wps
0.704 perplexity: 114.186 speed: 40967 wps
0.803 perplexity: 114.069 speed: 40975 wps
0.903 perplexity: 112.511 speed: 40970 wps
Epoch: 30 Train Perplexity: 111.950
Epoch: 30 Valid Perplexity: 169.378
Epoch: 31 Learning rate: 0.000
0.008 perplexity: 135.012 speed: 41033 wps
0.107 perplexity: 108.039 speed: 41031 wps
0.206 perplexity: 117.414 speed: 41004 wps
0.306 perplexity: 115.248 speed: 41038 wps
0.405 perplexity: 116.078 speed: 41024 wps
0.505 perplexity: 116.381 speed: 40984 wps
0.604 perplexity: 114.451 speed: 40983 wps
0.704 perplexity: 114.179 speed: 40951 wps
0.803 perplexity: 114.040 speed: 40937 wps
0.903 perplexity: 112.483 speed: 40957 wps
Epoch: 31 Train Perplexity: 111.918
Epoch: 31 Valid Perplexity: 169.336
Epoch: 32 Learning rate: 0.000
0.008 perplexity: 134.199 speed: 40758 wps
0.107 perplexity: 107.984 speed: 40653 wps
0.206 perplexity: 117.322 speed: 40549 wps
0.306 perplexity: 115.138 speed: 40687 wps
0.405 perplexity: 115.943 speed: 40852 wps
0.505 perplexity: 116.273 speed: 40879 wps
0.604 perplexity: 114.370 speed: 40875 wps
0.704 perplexity: 114.127 speed: 40898 wps
0.803 perplexity: 114.009 speed: 40967 wps
0.903 perplexity: 112.461 speed: 40976 wps
Epoch: 32 Train Perplexity: 111.912
Epoch: 32 Valid Perplexity: 169.224
Epoch: 33 Learning rate: 0.000
0.008 perplexity: 134.826 speed: 40960 wps
0.107 perplexity: 107.995 speed: 41039 wps
0.206 perplexity: 117.308 speed: 40933 wps
0.306 perplexity: 115.085 speed: 40912 wps
0.405 perplexity: 115.892 speed: 40888 wps
0.505 perplexity: 116.249 speed: 40747 wps
0.604 perplexity: 114.334 speed: 40774 wps
0.704 perplexity: 114.070 speed: 40795 wps
0.803 perplexity: 113.955 speed: 40811 wps
0.903 perplexity: 112.431 speed: 40816 wps
Epoch: 33 Train Perplexity: 111.868
Epoch: 33 Valid Perplexity: 169.187
Epoch: 34 Learning rate: 0.000
0.008 perplexity: 134.239 speed: 40873 wps
0.107 perplexity: 107.900 speed: 41044 wps
0.206 perplexity: 117.386 speed: 40954 wps
0.306 perplexity: 115.149 speed: 40920 wps
0.405 perplexity: 115.929 speed: 40840 wps
0.505 perplexity: 116.272 speed: 40814 wps
0.604 perplexity: 114.352 speed: 40881 wps
0.704 perplexity: 114.125 speed: 40919 wps
0.803 perplexity: 113.988 speed: 40881 wps
0.903 perplexity: 112.450 speed: 40875 wps
Epoch: 34 Train Perplexity: 111.882
Epoch: 34 Valid Perplexity: 169.155
Epoch: 35 Learning rate: 0.000
0.008 perplexity: 134.553 speed: 41250 wps
0.107 perplexity: 108.025 speed: 40732 wps
0.206 perplexity: 117.447 speed: 40864 wps
0.306 perplexity: 115.239 speed: 40916 wps
0.405 perplexity: 116.027 speed: 40861 wps
0.505 perplexity: 116.350 speed: 40878 wps
0.604 perplexity: 114.398 speed: 40862 wps
0.704 perplexity: 114.121 speed: 40874 wps
0.803 perplexity: 114.013 speed: 40887 wps
0.903 perplexity: 112.456 speed: 40917 wps
Epoch: 35 Train Perplexity: 111.880
Epoch: 35 Valid Perplexity: 169.137
Epoch: 36 Learning rate: 0.000
0.008 perplexity: 135.276 speed: 41358 wps
0.107 perplexity: 107.895 speed: 40332 wps
0.206 perplexity: 117.281 speed: 40689 wps
0.306 perplexity: 115.183 speed: 40684 wps
0.405 perplexity: 116.026 speed: 40588 wps
0.505 perplexity: 116.338 speed: 40520 wps
0.604 perplexity: 114.398 speed: 40539 wps
0.704 perplexity: 114.121 speed: 40527 wps
0.803 perplexity: 113.997 speed: 40545 wps
0.903 perplexity: 112.461 speed: 40550 wps
Epoch: 36 Train Perplexity: 111.866
Epoch: 36 Valid Perplexity: 169.102
Epoch: 37 Learning rate: 0.000
0.008 perplexity: 134.463 speed: 40802 wps
0.107 perplexity: 107.993 speed: 40952 wps
0.206 perplexity: 117.384 speed: 40365 wps
0.306 perplexity: 115.231 speed: 40449 wps
0.405 perplexity: 115.989 speed: 40466 wps
0.505 perplexity: 116.338 speed: 40440 wps
0.604 perplexity: 114.411 speed: 40503 wps
0.704 perplexity: 114.144 speed: 40551 wps
0.803 perplexity: 114.013 speed: 40601 wps
0.903 perplexity: 112.460 speed: 40646 wps
Epoch: 37 Train Perplexity: 111.884
Epoch: 37 Valid Perplexity: 169.129
Epoch: 38 Learning rate: 0.000
0.008 perplexity: 134.102 speed: 40753 wps
0.107 perplexity: 107.857 speed: 41021 wps
0.206 perplexity: 117.280 speed: 40897 wps
0.306 perplexity: 115.187 speed: 40878 wps
0.405 perplexity: 115.967 speed: 40884 wps
0.505 perplexity: 116.299 speed: 40865 wps
0.604 perplexity: 114.389 speed: 40840 wps
0.704 perplexity: 114.116 speed: 40809 wps
0.803 perplexity: 114.001 speed: 40828 wps
0.903 perplexity: 112.442 speed: 40809 wps
Epoch: 38 Train Perplexity: 111.864
Epoch: 38 Valid Perplexity: 169.089
Epoch: 39 Learning rate: 0.000
0.008 perplexity: 135.233 speed: 41276 wps
0.107 perplexity: 108.113 speed: 40567 wps
0.206 perplexity: 117.406 speed: 40599 wps
0.306 perplexity: 115.193 speed: 40635 wps
0.405 perplexity: 115.968 speed: 40675 wps
0.505 perplexity: 116.265 speed: 40678 wps
0.604 perplexity: 114.323 speed: 40708 wps
0.704 perplexity: 114.053 speed: 40727 wps
0.803 perplexity: 113.951 speed: 40715 wps
0.903 perplexity: 112.399 speed: 40717 wps
Epoch: 39 Train Perplexity: 111.832
Epoch: 39 Valid Perplexity: 169.092
Test Perplexity: 165.228
