2017-09-11 15:09:15.790769: W tensorflow/core/platform/cpu_feature_guard.cc:45] The TensorFlow library wasn't compiled to use SSE4.1 instructions, but these are available on your machine and could speed up CPU computations.
2017-09-11 15:09:15.791456: W tensorflow/core/platform/cpu_feature_guard.cc:45] The TensorFlow library wasn't compiled to use SSE4.2 instructions, but these are available on your machine and could speed up CPU computations.
2017-09-11 15:09:15.791484: W tensorflow/core/platform/cpu_feature_guard.cc:45] The TensorFlow library wasn't compiled to use AVX instructions, but these are available on your machine and could speed up CPU computations.
2017-09-11 15:09:15.791499: W tensorflow/core/platform/cpu_feature_guard.cc:45] The TensorFlow library wasn't compiled to use AVX2 instructions, but these are available on your machine and could speed up CPU computations.
2017-09-11 15:09:15.791513: W tensorflow/core/platform/cpu_feature_guard.cc:45] The TensorFlow library wasn't compiled to use FMA instructions, but these are available on your machine and could speed up CPU computations.
2017-09-11 15:09:16.407696: I tensorflow/core/common_runtime/gpu/gpu_device.cc:940] Found device 0 with properties: 
name: Graphics Device
major: 6 minor: 1 memoryClockRate (GHz) 1.582
pciBusID 0000:0a:00.0
Total memory: 10.91GiB
Free memory: 10.76GiB
2017-09-11 15:09:16.407760: I tensorflow/core/common_runtime/gpu/gpu_device.cc:961] DMA: 0 
2017-09-11 15:09:16.407781: I tensorflow/core/common_runtime/gpu/gpu_device.cc:971] 0:   Y 
2017-09-11 15:09:16.408378: I tensorflow/core/common_runtime/gpu/gpu_device.cc:1030] Creating TensorFlow device (/gpu:0) -> (device: 0, name: Graphics Device, pci bus id: 0000:0a:00.0)
WARNING:tensorflow:Standard services need a 'logdir' passed to the SessionManager
==============================================================
Epoch: 1 Learning rate: 1.000
0.008 perplexity: 2653.455 speed: 8559 wps
0.107 perplexity: 709.215 speed: 23606 wps
0.206 perplexity: 540.837 speed: 25416 wps
0.306 perplexity: 452.666 speed: 26055 wps
0.405 perplexity: 403.175 speed: 26299 wps
0.505 perplexity: 368.043 speed: 26470 wps
0.604 perplexity: 337.463 speed: 26522 wps
0.704 perplexity: 315.908 speed: 25667 wps
0.803 perplexity: 298.594 speed: 25785 wps
0.903 perplexity: 282.285 speed: 25881 wps
Epoch: 1 Train Perplexity: 269.880
Epoch: 1 Valid Perplexity: 182.663
Epoch: 2 Learning rate: 1.000
0.008 perplexity: 206.835 speed: 28188 wps
0.107 perplexity: 156.002 speed: 26739 wps
0.206 perplexity: 162.906 speed: 27069 wps
0.306 perplexity: 157.679 speed: 27165 wps
0.405 perplexity: 155.332 speed: 27161 wps
0.505 perplexity: 152.588 speed: 27171 wps
0.604 perplexity: 148.304 speed: 27143 wps
0.704 perplexity: 145.967 speed: 27130 wps
0.803 perplexity: 143.795 speed: 27190 wps
0.903 perplexity: 140.123 speed: 27151 wps
Epoch: 2 Train Perplexity: 137.899
Epoch: 2 Valid Perplexity: 139.414
Epoch: 3 Learning rate: 1.000
0.008 perplexity: 137.532 speed: 28616 wps
0.107 perplexity: 105.167 speed: 27271 wps
0.206 perplexity: 113.304 speed: 27390 wps
0.306 perplexity: 110.254 speed: 27624 wps
0.405 perplexity: 109.595 speed: 27690 wps
0.505 perplexity: 108.375 speed: 27607 wps
0.604 perplexity: 106.004 speed: 27558 wps
0.704 perplexity: 105.186 speed: 27563 wps
0.803 perplexity: 104.385 speed: 27602 wps
0.903 perplexity: 102.041 speed: 27583 wps
Epoch: 3 Train Perplexity: 100.969
Epoch: 3 Valid Perplexity: 126.000
Epoch: 4 Learning rate: 1.000
0.008 perplexity: 104.967 speed: 27397 wps
0.107 perplexity: 81.142 speed: 27376 wps
0.206 perplexity: 88.383 speed: 27229 wps
0.306 perplexity: 85.894 speed: 27269 wps
0.405 perplexity: 85.487 speed: 27385 wps
0.505 perplexity: 84.731 speed: 27409 wps
0.604 perplexity: 83.174 speed: 27408 wps
0.704 perplexity: 82.814 speed: 27410 wps
0.803 perplexity: 82.422 speed: 27411 wps
0.903 perplexity: 80.720 speed: 27406 wps
Epoch: 4 Train Perplexity: 80.022
Epoch: 4 Valid Perplexity: 122.682
Epoch: 5 Learning rate: 1.000
0.008 perplexity: 83.577 speed: 28806 wps
0.107 perplexity: 65.728 speed: 26915 wps
0.206 perplexity: 71.805 speed: 27225 wps
0.306 perplexity: 70.109 speed: 27107 wps
0.405 perplexity: 69.849 speed: 27002 wps
0.505 perplexity: 69.375 speed: 26941 wps
0.604 perplexity: 68.234 speed: 27032 wps
0.704 perplexity: 68.131 speed: 27051 wps
0.803 perplexity: 67.921 speed: 27078 wps
0.903 perplexity: 66.643 speed: 27063 wps
Epoch: 5 Train Perplexity: 66.126
Epoch: 5 Valid Perplexity: 123.629
Epoch: 6 Learning rate: 1.000
0.008 perplexity: 70.091 speed: 27378 wps
0.107 perplexity: 55.503 speed: 27075 wps
0.206 perplexity: 60.432 speed: 27100 wps
0.306 perplexity: 59.027 speed: 27117 wps
0.405 perplexity: 58.741 speed: 27137 wps
0.505 perplexity: 58.388 speed: 27082 wps
0.604 perplexity: 57.466 speed: 27036 wps
0.704 perplexity: 57.474 speed: 26961 wps
0.803 perplexity: 57.373 speed: 26988 wps
0.903 perplexity: 56.307 speed: 26966 wps
Epoch: 6 Train Perplexity: 55.929
Epoch: 6 Valid Perplexity: 128.328
Epoch: 7 Learning rate: 0.800
0.008 perplexity: 59.098 speed: 27389 wps
0.107 perplexity: 46.216 speed: 27343 wps
0.206 perplexity: 49.712 speed: 27189 wps
0.306 perplexity: 48.227 speed: 27112 wps
0.405 perplexity: 47.727 speed: 26991 wps
0.505 perplexity: 47.286 speed: 26924 wps
0.604 perplexity: 46.412 speed: 26910 wps
0.704 perplexity: 46.262 speed: 26884 wps
0.803 perplexity: 46.032 speed: 26867 wps
0.903 perplexity: 45.043 speed: 26858 wps
Epoch: 7 Train Perplexity: 44.642
Epoch: 7 Valid Perplexity: 129.931
Epoch: 8 Learning rate: 0.640
0.008 perplexity: 48.490 speed: 26905 wps
0.107 perplexity: 38.565 speed: 26986 wps
0.206 perplexity: 41.440 speed: 27039 wps
0.306 perplexity: 40.059 speed: 26996 wps
0.405 perplexity: 39.556 speed: 26918 wps
0.505 perplexity: 39.134 speed: 26971 wps
0.604 perplexity: 38.361 speed: 26928 wps
0.704 perplexity: 38.204 speed: 26963 wps
0.803 perplexity: 37.971 speed: 26987 wps
0.903 perplexity: 37.094 speed: 27013 wps
Epoch: 8 Train Perplexity: 36.687
Epoch: 8 Valid Perplexity: 133.573
Epoch: 9 Learning rate: 0.512
0.008 perplexity: 41.824 speed: 28408 wps
0.107 perplexity: 33.279 speed: 27080 wps
0.206 perplexity: 35.500 speed: 26992 wps
0.306 perplexity: 34.334 speed: 27040 wps
0.405 perplexity: 33.861 speed: 27056 wps
0.505 perplexity: 33.461 speed: 27024 wps
0.604 perplexity: 32.780 speed: 27038 wps
0.704 perplexity: 32.625 speed: 27012 wps
0.803 perplexity: 32.362 speed: 26963 wps
0.903 perplexity: 31.589 speed: 26848 wps
Epoch: 9 Train Perplexity: 31.217
Epoch: 9 Valid Perplexity: 136.357
Epoch: 10 Learning rate: 0.410
0.008 perplexity: 36.562 speed: 27725 wps
0.107 perplexity: 29.347 speed: 26904 wps
0.206 perplexity: 31.341 speed: 26985 wps
0.306 perplexity: 30.194 speed: 26740 wps
0.405 perplexity: 29.712 speed: 26793 wps
0.505 perplexity: 29.384 speed: 26781 wps
0.604 perplexity: 28.803 speed: 26814 wps
0.704 perplexity: 28.647 speed: 26842 wps
0.803 perplexity: 28.416 speed: 26834 wps
0.903 perplexity: 27.723 speed: 26818 wps
Epoch: 10 Train Perplexity: 27.351
Epoch: 10 Valid Perplexity: 139.502
Epoch: 11 Learning rate: 0.328
0.008 perplexity: 33.371 speed: 29373 wps
0.107 perplexity: 26.460 speed: 27115 wps
0.206 perplexity: 28.151 speed: 27257 wps
0.306 perplexity: 27.179 speed: 27111 wps
0.405 perplexity: 26.770 speed: 27119 wps
0.505 perplexity: 26.440 speed: 27131 wps
0.604 perplexity: 25.893 speed: 27125 wps
0.704 perplexity: 25.726 speed: 27096 wps
0.803 perplexity: 25.510 speed: 27041 wps
0.903 perplexity: 24.880 speed: 27064 wps
Epoch: 11 Train Perplexity: 24.545
Epoch: 11 Valid Perplexity: 141.620
Epoch: 12 Learning rate: 0.262
0.008 perplexity: 30.209 speed: 27089 wps
0.107 perplexity: 24.317 speed: 26606 wps
0.206 perplexity: 25.796 speed: 26751 wps
0.306 perplexity: 24.872 speed: 26763 wps
0.405 perplexity: 24.484 speed: 26746 wps
0.505 perplexity: 24.207 speed: 26843 wps
0.604 perplexity: 23.737 speed: 26924 wps
0.704 perplexity: 23.588 speed: 26937 wps
0.803 perplexity: 23.389 speed: 26911 wps
0.903 perplexity: 22.792 speed: 26973 wps
Epoch: 12 Train Perplexity: 22.478
Epoch: 12 Valid Perplexity: 143.785
Epoch: 13 Learning rate: 0.210
0.008 perplexity: 28.424 speed: 27815 wps
0.107 perplexity: 22.664 speed: 27102 wps
0.206 perplexity: 24.054 speed: 26422 wps
0.306 perplexity: 23.205 speed: 26280 wps
0.405 perplexity: 22.849 speed: 26292 wps
0.505 perplexity: 22.563 speed: 26344 wps
0.604 perplexity: 22.123 speed: 26392 wps
0.704 perplexity: 21.977 speed: 26517 wps
0.803 perplexity: 21.787 speed: 26574 wps
0.903 perplexity: 21.233 speed: 26575 wps
Epoch: 13 Train Perplexity: 20.928
Epoch: 13 Valid Perplexity: 144.870
Epoch: 14 Learning rate: 0.168
0.008 perplexity: 26.126 speed: 26485 wps
0.107 perplexity: 21.372 speed: 27367 wps
0.206 perplexity: 22.786 speed: 27071 wps
0.306 perplexity: 21.993 speed: 27002 wps
0.405 perplexity: 21.652 speed: 26881 wps
0.505 perplexity: 21.386 speed: 26827 wps
0.604 perplexity: 20.957 speed: 26820 wps
0.704 perplexity: 20.819 speed: 26794 wps
0.803 perplexity: 20.608 speed: 26829 wps
0.903 perplexity: 20.082 speed: 26778 wps
Epoch: 14 Train Perplexity: 19.799
Epoch: 14 Valid Perplexity: 146.024
Epoch: 15 Learning rate: 0.134
0.008 perplexity: 24.869 speed: 27590 wps
0.107 perplexity: 20.486 speed: 26941 wps
0.206 perplexity: 21.814 speed: 26897 wps
0.306 perplexity: 21.059 speed: 26744 wps
0.405 perplexity: 20.698 speed: 26753 wps
0.505 perplexity: 20.438 speed: 26776 wps
0.604 perplexity: 20.017 speed: 26783 wps
0.704 perplexity: 19.880 speed: 26819 wps
0.803 perplexity: 19.695 speed: 26823 wps
0.903 perplexity: 19.190 speed: 26845 wps
Epoch: 15 Train Perplexity: 18.919
Epoch: 15 Valid Perplexity: 147.235
Epoch: 16 Learning rate: 0.107
0.008 perplexity: 24.153 speed: 28267 wps
0.107 perplexity: 19.750 speed: 26360 wps
0.206 perplexity: 21.019 speed: 26587 wps
0.306 perplexity: 20.268 speed: 26877 wps
0.405 perplexity: 19.944 speed: 26958 wps
0.505 perplexity: 19.700 speed: 27004 wps
0.604 perplexity: 19.295 speed: 27063 wps
0.704 perplexity: 19.159 speed: 27087 wps
0.803 perplexity: 18.980 speed: 27072 wps
0.903 perplexity: 18.494 speed: 27078 wps
Epoch: 16 Train Perplexity: 18.223
Epoch: 16 Valid Perplexity: 147.530
Epoch: 17 Learning rate: 0.086
0.008 perplexity: 23.389 speed: 27933 wps
0.107 perplexity: 19.145 speed: 27156 wps
0.206 perplexity: 20.380 speed: 27280 wps
0.306 perplexity: 19.662 speed: 27140 wps
0.405 perplexity: 19.325 speed: 27311 wps
0.505 perplexity: 19.096 speed: 27282 wps
0.604 perplexity: 18.718 speed: 27217 wps
0.704 perplexity: 18.577 speed: 27181 wps
0.803 perplexity: 18.405 speed: 27163 wps
0.903 perplexity: 17.936 speed: 27188 wps
Epoch: 17 Train Perplexity: 17.673
Epoch: 17 Valid Perplexity: 148.121
Epoch: 18 Learning rate: 0.069
0.008 perplexity: 23.052 speed: 27576 wps
0.107 perplexity: 18.753 speed: 26959 wps
0.206 perplexity: 19.863 speed: 27065 wps
0.306 perplexity: 19.185 speed: 27158 wps
0.405 perplexity: 18.886 speed: 27044 wps
0.505 perplexity: 18.675 speed: 27246 wps
0.604 perplexity: 18.299 speed: 27297 wps
0.704 perplexity: 18.175 speed: 27284 wps
0.803 perplexity: 17.999 speed: 27199 wps
0.903 perplexity: 17.538 speed: 27189 wps
Epoch: 18 Train Perplexity: 17.283
Epoch: 18 Valid Perplexity: 148.581
Epoch: 19 Learning rate: 0.055
0.008 perplexity: 22.614 speed: 28053 wps
0.107 perplexity: 18.381 speed: 27036 wps
0.206 perplexity: 19.505 speed: 26931 wps
0.306 perplexity: 18.821 speed: 26896 wps
0.405 perplexity: 18.514 speed: 26862 wps
0.505 perplexity: 18.305 speed: 26847 wps
0.604 perplexity: 17.935 speed: 26826 wps
0.704 perplexity: 17.825 speed: 26844 wps
0.803 perplexity: 17.656 speed: 26879 wps
0.903 perplexity: 17.201 speed: 26847 wps
Epoch: 19 Train Perplexity: 16.942
Epoch: 19 Valid Perplexity: 148.948
Epoch: 20 Learning rate: 0.044
0.008 perplexity: 22.076 speed: 26443 wps
0.107 perplexity: 18.147 speed: 26442 wps
0.206 perplexity: 19.268 speed: 26746 wps
0.306 perplexity: 18.547 speed: 26855 wps
0.405 perplexity: 18.224 speed: 26802 wps
0.505 perplexity: 18.016 speed: 26867 wps
0.604 perplexity: 17.648 speed: 26937 wps
0.704 perplexity: 17.520 speed: 26865 wps
0.803 perplexity: 17.353 speed: 26853 wps
0.903 perplexity: 16.904 speed: 26874 wps
Epoch: 20 Train Perplexity: 16.655
Epoch: 20 Valid Perplexity: 149.104
Epoch: 21 Learning rate: 0.035
0.008 perplexity: 21.914 speed: 28252 wps
0.107 perplexity: 17.877 speed: 27014 wps
0.206 perplexity: 18.951 speed: 26890 wps
0.306 perplexity: 18.311 speed: 26849 wps
0.405 perplexity: 17.989 speed: 26865 wps
0.505 perplexity: 17.787 speed: 26928 wps
0.604 perplexity: 17.434 speed: 26924 wps
0.704 perplexity: 17.312 speed: 26949 wps
0.803 perplexity: 17.157 speed: 26996 wps
0.903 perplexity: 16.713 speed: 27045 wps
Epoch: 21 Train Perplexity: 16.472
Epoch: 21 Valid Perplexity: 149.267
Epoch: 22 Learning rate: 0.028
0.008 perplexity: 21.824 speed: 27482 wps
0.107 perplexity: 17.722 speed: 26604 wps
0.206 perplexity: 18.839 speed: 26759 wps
0.306 perplexity: 18.176 speed: 26839 wps
0.405 perplexity: 17.868 speed: 26842 wps
0.505 perplexity: 17.659 speed: 26877 wps
0.604 perplexity: 17.297 speed: 26910 wps
0.704 perplexity: 17.172 speed: 26909 wps
0.803 perplexity: 17.011 speed: 26901 wps
0.903 perplexity: 16.571 speed: 26838 wps
Epoch: 22 Train Perplexity: 16.320
Epoch: 22 Valid Perplexity: 149.500
Epoch: 23 Learning rate: 0.023
0.008 perplexity: 21.318 speed: 28289 wps
0.107 perplexity: 17.561 speed: 27196 wps
0.206 perplexity: 18.625 speed: 27107 wps
0.306 perplexity: 18.009 speed: 26941 wps
0.405 perplexity: 17.701 speed: 26911 wps
0.505 perplexity: 17.512 speed: 26934 wps
0.604 perplexity: 17.150 speed: 26880 wps
0.704 perplexity: 17.019 speed: 26865 wps
0.803 perplexity: 16.840 speed: 26849 wps
0.903 perplexity: 16.411 speed: 26819 wps
Epoch: 23 Train Perplexity: 16.169
Epoch: 23 Valid Perplexity: 149.646
Epoch: 24 Learning rate: 0.018
0.008 perplexity: 21.015 speed: 27545 wps
0.107 perplexity: 17.400 speed: 27316 wps
0.206 perplexity: 18.509 speed: 27051 wps
0.306 perplexity: 17.878 speed: 26952 wps
0.405 perplexity: 17.578 speed: 26937 wps
0.505 perplexity: 17.368 speed: 26997 wps
0.604 perplexity: 17.011 speed: 26956 wps
0.704 perplexity: 16.890 speed: 26877 wps
0.803 perplexity: 16.724 speed: 26878 wps
0.903 perplexity: 16.298 speed: 26839 wps
Epoch: 24 Train Perplexity: 16.052
Epoch: 24 Valid Perplexity: 149.736
Epoch: 25 Learning rate: 0.014
0.008 perplexity: 21.179 speed: 28785 wps
0.107 perplexity: 17.381 speed: 26857 wps
0.206 perplexity: 18.455 speed: 26945 wps
0.306 perplexity: 17.832 speed: 26858 wps
0.405 perplexity: 17.527 speed: 26857 wps
0.505 perplexity: 17.313 speed: 26897 wps
0.604 perplexity: 16.948 speed: 26851 wps
0.704 perplexity: 16.823 speed: 26858 wps
0.803 perplexity: 16.653 speed: 26871 wps
0.903 perplexity: 16.219 speed: 26882 wps
Epoch: 25 Train Perplexity: 15.975
Epoch: 25 Valid Perplexity: 149.750
Epoch: 26 Learning rate: 0.012
0.008 perplexity: 21.097 speed: 27197 wps
0.107 perplexity: 17.361 speed: 26733 wps
0.206 perplexity: 18.391 speed: 26974 wps
0.306 perplexity: 17.743 speed: 26914 wps
0.405 perplexity: 17.424 speed: 26969 wps
0.505 perplexity: 17.220 speed: 26911 wps
0.604 perplexity: 16.880 speed: 26913 wps
0.704 perplexity: 16.755 speed: 26876 wps
0.803 perplexity: 16.591 speed: 26872 wps
0.903 perplexity: 16.164 speed: 26837 wps
Epoch: 26 Train Perplexity: 15.922
Epoch: 26 Valid Perplexity: 149.816
Epoch: 27 Learning rate: 0.009
0.008 perplexity: 20.844 speed: 27710 wps
0.107 perplexity: 17.251 speed: 26813 wps
0.206 perplexity: 18.282 speed: 26893 wps
0.306 perplexity: 17.652 speed: 27007 wps
0.405 perplexity: 17.366 speed: 27074 wps
0.505 perplexity: 17.167 speed: 27091 wps
0.604 perplexity: 16.817 speed: 27086 wps
0.704 perplexity: 16.695 speed: 27014 wps
0.803 perplexity: 16.519 speed: 26959 wps
0.903 perplexity: 16.098 speed: 26948 wps
Epoch: 27 Train Perplexity: 15.856
Epoch: 27 Valid Perplexity: 149.878
Epoch: 28 Learning rate: 0.007
0.008 perplexity: 21.133 speed: 28585 wps
0.107 perplexity: 17.161 speed: 27078 wps
0.206 perplexity: 18.202 speed: 27035 wps
0.306 perplexity: 17.560 speed: 27342 wps
0.405 perplexity: 17.268 speed: 27355 wps
0.505 perplexity: 17.065 speed: 27276 wps
0.604 perplexity: 16.716 speed: 27218 wps
0.704 perplexity: 16.590 speed: 27176 wps
0.803 perplexity: 16.426 speed: 27095 wps
0.903 perplexity: 16.014 speed: 27105 wps
Epoch: 28 Train Perplexity: 15.781
Epoch: 28 Valid Perplexity: 149.926
Epoch: 29 Learning rate: 0.006
0.008 perplexity: 20.958 speed: 28698 wps
0.107 perplexity: 17.127 speed: 27400 wps
0.206 perplexity: 18.145 speed: 27343 wps
0.306 perplexity: 17.523 speed: 27180 wps
0.405 perplexity: 17.228 speed: 27199 wps
0.505 perplexity: 17.029 speed: 27132 wps
0.604 perplexity: 16.677 speed: 27018 wps
0.704 perplexity: 16.566 speed: 27012 wps
0.803 perplexity: 16.400 speed: 27003 wps
0.903 perplexity: 15.982 speed: 27043 wps
Epoch: 29 Train Perplexity: 15.744
Epoch: 29 Valid Perplexity: 149.967
Epoch: 30 Learning rate: 0.005
0.008 perplexity: 20.717 speed: 28952 wps
0.107 perplexity: 17.088 speed: 27069 wps
0.206 perplexity: 18.123 speed: 26839 wps
0.306 perplexity: 17.500 speed: 26847 wps
0.405 perplexity: 17.193 speed: 26820 wps
0.505 perplexity: 16.997 speed: 26835 wps
0.604 perplexity: 16.661 speed: 26878 wps
0.704 perplexity: 16.546 speed: 26933 wps
0.803 perplexity: 16.386 speed: 26933 wps
0.903 perplexity: 15.973 speed: 26940 wps
Epoch: 30 Train Perplexity: 15.738
Epoch: 30 Valid Perplexity: 150.009
Epoch: 31 Learning rate: 0.004
0.008 perplexity: 20.930 speed: 28828 wps
0.107 perplexity: 17.033 speed: 27305 wps
0.206 perplexity: 18.085 speed: 27180 wps
0.306 perplexity: 17.491 speed: 27003 wps
0.405 perplexity: 17.181 speed: 26935 wps
0.505 perplexity: 16.975 speed: 26842 wps
0.604 perplexity: 16.632 speed: 26901 wps
0.704 perplexity: 16.527 speed: 27007 wps
0.803 perplexity: 16.373 speed: 27000 wps
0.903 perplexity: 15.950 speed: 26978 wps
Epoch: 31 Train Perplexity: 15.711
Epoch: 31 Valid Perplexity: 150.070
Epoch: 32 Learning rate: 0.003
0.008 perplexity: 20.767 speed: 27106 wps
0.107 perplexity: 17.076 speed: 27164 wps
0.206 perplexity: 18.102 speed: 26836 wps
0.306 perplexity: 17.491 speed: 26919 wps
0.405 perplexity: 17.172 speed: 26887 wps
0.505 perplexity: 16.997 speed: 26829 wps
0.604 perplexity: 16.658 speed: 26888 wps
0.704 perplexity: 16.528 speed: 26907 wps
0.803 perplexity: 16.368 speed: 26876 wps
0.903 perplexity: 15.942 speed: 26896 wps
Epoch: 32 Train Perplexity: 15.704
Epoch: 32 Valid Perplexity: 150.077
Epoch: 33 Learning rate: 0.002
0.008 perplexity: 21.051 speed: 27464 wps
0.107 perplexity: 17.045 speed: 26509 wps
0.206 perplexity: 18.089 speed: 26889 wps
0.306 perplexity: 17.419 speed: 26786 wps
0.405 perplexity: 17.132 speed: 26880 wps
0.505 perplexity: 16.935 speed: 26934 wps
0.604 perplexity: 16.598 speed: 26987 wps
0.704 perplexity: 16.490 speed: 27023 wps
0.803 perplexity: 16.327 speed: 26966 wps
0.903 perplexity: 15.920 speed: 26949 wps
Epoch: 33 Train Perplexity: 15.683
Epoch: 33 Valid Perplexity: 150.083
Epoch: 34 Learning rate: 0.002
0.008 perplexity: 20.704 speed: 28951 wps
0.107 perplexity: 17.032 speed: 26797 wps
0.206 perplexity: 18.045 speed: 26885 wps
0.306 perplexity: 17.440 speed: 26822 wps
0.405 perplexity: 17.137 speed: 26987 wps
0.505 perplexity: 16.930 speed: 27079 wps
0.604 perplexity: 16.595 speed: 27006 wps
0.704 perplexity: 16.478 speed: 27016 wps
0.803 perplexity: 16.315 speed: 27040 wps
0.903 perplexity: 15.898 speed: 27094 wps
Epoch: 34 Train Perplexity: 15.661
Epoch: 34 Valid Perplexity: 150.127
Epoch: 35 Learning rate: 0.002
0.008 perplexity: 20.306 speed: 26202 wps
0.107 perplexity: 17.036 speed: 26961 wps
0.206 perplexity: 18.049 speed: 27009 wps
0.306 perplexity: 17.428 speed: 27010 wps
0.405 perplexity: 17.112 speed: 26978 wps
0.505 perplexity: 16.914 speed: 27020 wps
0.604 perplexity: 16.567 speed: 27052 wps
0.704 perplexity: 16.445 speed: 27105 wps
0.803 perplexity: 16.294 speed: 27015 wps
0.903 perplexity: 15.876 speed: 27011 wps
Epoch: 35 Train Perplexity: 15.645
Epoch: 35 Valid Perplexity: 150.137
Epoch: 36 Learning rate: 0.001
0.008 perplexity: 21.143 speed: 27023 wps
0.107 perplexity: 16.981 speed: 27308 wps
0.206 perplexity: 18.022 speed: 27014 wps
0.306 perplexity: 17.401 speed: 26946 wps
0.405 perplexity: 17.115 speed: 26854 wps
0.505 perplexity: 16.917 speed: 26886 wps
0.604 perplexity: 16.576 speed: 26829 wps
0.704 perplexity: 16.449 speed: 26874 wps
0.803 perplexity: 16.288 speed: 26892 wps
0.903 perplexity: 15.869 speed: 26904 wps
Epoch: 36 Train Perplexity: 15.639
Epoch: 36 Valid Perplexity: 150.151
Epoch: 37 Learning rate: 0.001
0.008 perplexity: 20.666 speed: 28311 wps
0.107 perplexity: 16.964 speed: 27145 wps
0.206 perplexity: 18.021 speed: 27174 wps
0.306 perplexity: 17.399 speed: 27117 wps
0.405 perplexity: 17.101 speed: 27079 wps
0.505 perplexity: 16.920 speed: 26994 wps
0.604 perplexity: 16.588 speed: 26960 wps
0.704 perplexity: 16.465 speed: 26977 wps
0.803 perplexity: 16.314 speed: 26941 wps
0.903 perplexity: 15.897 speed: 26857 wps
Epoch: 37 Train Perplexity: 15.660
Epoch: 37 Valid Perplexity: 150.162
Epoch: 38 Learning rate: 0.001
0.008 perplexity: 21.113 speed: 29092 wps
0.107 perplexity: 16.981 speed: 26878 wps
0.206 perplexity: 17.990 speed: 26857 wps
0.306 perplexity: 17.388 speed: 26808 wps
0.405 perplexity: 17.094 speed: 26829 wps
0.505 perplexity: 16.893 speed: 26750 wps
0.604 perplexity: 16.561 speed: 26816 wps
0.704 perplexity: 16.445 speed: 26764 wps
0.803 perplexity: 16.290 speed: 26753 wps
0.903 perplexity: 15.877 speed: 26748 wps
Epoch: 38 Train Perplexity: 15.640
Epoch: 38 Valid Perplexity: 150.169
Epoch: 39 Learning rate: 0.001
0.008 perplexity: 20.603 speed: 28088 wps
0.107 perplexity: 16.907 speed: 26800 wps
0.206 perplexity: 17.959 speed: 26818 wps
0.306 perplexity: 17.360 speed: 26745 wps
0.405 perplexity: 17.067 speed: 26778 wps
0.505 perplexity: 16.886 speed: 26804 wps
0.604 perplexity: 16.539 speed: 26849 wps
0.704 perplexity: 16.414 speed: 26838 wps
0.803 perplexity: 16.260 speed: 26786 wps
0.903 perplexity: 15.836 speed: 26779 wps
Epoch: 39 Train Perplexity: 15.606
Epoch: 39 Valid Perplexity: 150.168
Test Perplexity: 145.974
